<svg xmlns="http://www.w3.org/2000/svg" width="18" height="18" viewBox="0 0 18 18">
  <path fill="none" stroke="#3EB7F9" stroke-linecap="round" stroke-linejoin="round" d="M9.39130435 4.52173913C9.39130435 5.29043478 8.76869565 5.91304348 8 5.91304348 7.23130435 5.91304348 6.60869565 5.29043478 6.60869565 4.52173913 6.60869565 3.75304348 7.23130435 3.13043478 8 3.13043478 8.76869565 3.13043478 9.39130435 3.75304348 9.39130435 4.52173913L9.39130435 4.52173913zM10.7826087 8.69565217C10.7826087 7.15895652 9.53669565 5.91304348 8 5.91304348 6.46330435 5.91304348 5.2173913 7.15895652 5.2173913 8.69565217L10.7826087 8.69565217 10.7826087 8.69565217zM5.2173913 1.73913043C5.2173913 2.50782609 4.59478261 3.13043478 3.82608696 3.13043478 3.0573913 3.13043478 2.43478261 2.50782609 2.43478261 1.73913043 2.43478261.970434783 3.0573913.347826087 3.82608696.347826087 4.59478261.347826087 5.2173913.970434783 5.2173913 1.73913043L5.2173913 1.73913043zM3.13043478 6.60869565C3.13043478 7.3773913 2.50782609 8 1.73913043 8 .970434783 8 .347826087 7.3773913.347826087 6.60869565.347826087 5.84.970434783 5.2173913 1.73913043 5.2173913 2.50782609 5.2173913 3.13043478 5.84 3.13043478 6.60869565L3.13043478 6.60869565zM5.2173913 11.4782609C5.2173913 12.2469565 4.59478261 12.8695652 3.82608696 12.8695652 3.0573913 12.8695652 2.43478261 12.2469565 2.43478261 11.4782609 2.43478261 10.7095652 3.0573913 10.0869565 3.82608696 10.0869565 4.59478261 10.0869565 5.2173913 10.7095652 5.2173913 11.4782609L5.2173913 11.4782609zM10.7826087 11.4782609C10.7826087 10.7095652 11.4052174 10.0869565 12.173913 10.0869565 12.9426087 10.0869565 13.5652174 10.7095652 13.5652174 11.4782609 13.5652174 12.2469565 12.9426087 12.8695652 12.173913 12.8695652 11.4052174 12.8695652 10.7826087 12.2469565 10.7826087 11.4782609L10.7826087 11.4782609zM12.8695652 6.60869565C12.8695652 5.84 13.4921739 5.2173913 14.2608696 5.2173913 15.0295652 5.2173913 15.6521739 5.84 15.6521739 6.60869565 15.6521739 7.3773913 15.0295652 8 14.2608696 8 13.4921739 8 12.8695652 7.3773913 12.8695652 6.60869565L12.8695652 6.60869565zM10.7826087 1.73913043C10.7826087.970434783 11.4052174.347826087 12.173913.347826087 12.9426087.347826087 13.5652174.970434783 13.5652174 1.73913043 13.5652174 2.50782609 12.9426087 3.13043478 12.173913 3.13043478 11.4052174 3.13043478 10.7826087 2.50782609 10.7826087 1.73913043L10.7826087 1.73913043zM4.86956522 2.7826087L5.56521739 3.47826087M3.13043478 6.60869565L4.52173913 6.60869565M4.86956522 10.4347826L5.56521739 9.73913043M11.1304348 10.4347826L10.4347826 9.73913043M12.8695652 6.60869565L11.4782609 6.60869565M11.1304348 2.7826087L10.4347826 3.47826087" transform="translate(1 2.391)"/>
</svg>
