<svg xmlns="http://www.w3.org/2000/svg" width="36" height="36" viewBox="0 0 36 36">
  <g fill="none" fill-rule="evenodd" transform="translate(1 5)">
    <path fill="#3EB7F9" d="M11.7614028 21.0205094C11.540875 21.0205094 11.319875 21.1078302 11.1522361 21.2824717 10.8160139 21.6312642 10.8160139 22.1993396 11.1522361 22.5486226 11.3146806 22.7173774 11.5309583 22.8105849 11.7614028 22.8105849 11.9918472 22.8105849 12.208125 22.7173774 12.3705694 22.5486226 12.7067917 22.1993396 12.7067917 21.6312642 12.3705694 21.2824717 12.2029306 21.1078302 11.9819306 21.0205094 11.7614028 21.0205094M13.7425639 23.078483C13.5215639 23.078483 13.3010361 23.1658038 13.1333972 23.3404453 12.797175 23.6897283 12.797175 24.2573132 13.1333972 24.6065962 13.2958417 24.7753509 13.5121194 24.8690491 13.7425639 24.8690491 13.9730083 24.8690491 14.1892861 24.7753509 14.3517306 24.6065962 14.6879528 24.2573132 14.6879528 23.6897283 14.3517306 23.3404453 14.1840917 23.1658038 13.9630917 23.078483 13.7425639 23.078483"/>
    <polygon fill="#FFF" points="7.825 1.352 1.301 8.129 3.812 10.736 10.335 3.96"/>
    <path fill="#6ED44C" d="M17.1869528,12.6648943 C17.1817583,12.6599887 17.1765639,12.655083 17.1713694,12.6496868 L17.1713694,12.6491962 C17.1708972,12.6491962 17.1708972,12.6491962 17.1708972,12.6487057 L17.1524806,12.6300642 L17.1340639,12.6104415 L17.1335917,12.6099509 L16.6797861,12.138517 L15.0038694,13.8800264 C14.582175,14.3176113 14.0287306,14.5359132 13.4748139,14.5359132 C12.9213694,14.5364038 12.367925,14.3176113 11.9467028,13.8800264 C11.5382306,13.4556868 11.3134528,12.8915358 11.3134528,12.2920642 C11.3134528,11.6921019 11.5382306,11.1279509 11.9467028,10.7041019 L15.2838972,7.2372717 C15.1238139,7.2632717 14.9656194,7.30447925 14.8130917,7.36236604 C14.4981194,7.48157358 14.1713417,7.53946038 13.8478694,7.53946038 C13.1253694,7.53946038 12.4208139,7.25149811 11.9027861,6.71334717 L10.5560083,5.31425283 L5.15048056,10.9292717 L6.10059167,11.9162906 C6.494425,12.3259132 6.75650833,12.8395358 6.85709167,13.4022151 C7.13286944,14.9376868 7.84073056,16.3333472 8.904175,17.439083 L9.290925,17.8408566 C9.92086944,17.6902528 10.6098417,17.8688189 11.0995361,18.3780264 C11.5023417,18.7964792 11.6907583,19.3537623 11.6647861,19.9027057 C11.6968972,19.901234 11.7290083,19.9002528 11.7615917,19.9002528 C12.2796194,19.9002528 12.7664806,20.1097245 13.132925,20.4899132 C13.5220361,20.8946302 13.7104528,21.4288566 13.6995917,21.9591585 C13.7137583,21.9591585 13.727925,21.9581774 13.7425639,21.9581774 C14.2605917,21.9581774 14.747925,22.1676491 15.1143694,22.5483283 C15.5653417,23.0168189 15.7471472,23.6614226 15.6602583,24.2716868 C15.7055917,24.280517 15.7518694,24.2854226 15.7990917,24.2854226 C15.9955361,24.2854226 16.1797028,24.2064415 16.3180639,24.0622151 C16.4568972,23.9174981 16.5333972,23.7261774 16.5333972,23.5225925 C16.5333972,23.3190075 16.4573694,23.1281774 16.3185361,22.9844415 C16.3175917,22.9834604 16.3171194,22.9824792 16.316175,22.9814981 L12.7938694,19.322366 C12.5837306,19.1040642 12.5837306,18.7493849 12.7938694,18.5305925 C13.0044806,18.3122906 13.3458972,18.3122906 13.5560361,18.5305925 L18.3075361,23.4666679 C18.5937028,23.7639509 19.0593139,23.7639509 19.3450083,23.4666679 C19.4838417,23.3224415 19.5598694,23.1316113 19.5598694,22.9275358 C19.5598694,22.7273849 19.4862028,22.5390075 19.3525639,22.3957623 L14.9703417,17.8442906 C14.7602028,17.6254981 14.7602028,17.2708189 14.9703417,17.0520264 C15.1809528,16.8337245 15.5223694,16.8337245 15.7329806,17.0520264 L20.1005639,21.5897623 C20.1024528,21.591234 20.1038694,21.5927057 20.1057583,21.5941774 C20.1109528,21.6000642 20.1161472,21.6059509 20.1213417,21.6113472 L21.071925,22.598366 C21.3576194,22.8956491 21.8237028,22.8956491 22.1103417,22.598366 C22.2482306,22.4546302 22.3247306,22.2628189 22.3247306,22.0587434 C22.3247306,21.8551585 22.2487028,21.6638377 22.1098694,21.5196113 L16.477675,15.6696113 C16.2670639,15.4508189 16.2670639,15.0961396 16.477675,14.8778377 C16.6882861,14.6590453 17.0292306,14.6590453 17.2398417,14.8773472 L22.4687583,20.3079132 C22.6075917,20.4526302 22.7917583,20.5321019 22.9872583,20.5321019 C23.1832306,20.5321019 23.3678694,20.4526302 23.5062306,20.3084038 C23.6450639,20.1646679 23.7215639,19.9728566 23.7215639,19.7692717 C23.7215639,19.5656868 23.6450639,19.3738755 23.5067028,19.2301396 L17.1869528,12.6648943 Z"/>
    <path fill="#3EB7F9" d="M9.72801389,18.9082792 C9.50748611,18.9082792 9.28695833,18.9956 9.11884722,19.1702415 C8.95593056,19.3389962 8.86620833,19.564166 8.86620833,19.8030717 C8.86620833,20.0424679 8.95593056,20.2671472 9.11884722,20.4363925 C9.45506944,20.7851849 10.0014306,20.7851849 10.3376528,20.4363925 C10.6734028,20.0871094 10.6734028,19.519034 10.3376528,19.1702415 C10.1695417,18.9956 9.94854167,18.9082792 9.72801389,18.9082792"/>
    <polygon fill="#FFF" points="24.153 4.176 29.935 10.183 32.446 7.575 26.663 1.568"/>
    <path fill="#3EB7F9" d="M23.3476111,6.48155472 C22.5448333,7.31551698 21.3038333,7.54510189 20.25975,7.05257358 C19.80075,6.83623396 19.2902778,6.72193208 18.7831111,6.72193208 C18.1191667,6.72193208 17.4712778,6.91178113 16.9112222,7.2718566 C16.6751111,7.42295094 16.4555278,7.60347925 16.2581389,7.80853585 L12.7089167,11.4961208 C12.5039722,11.7085358 12.3915833,11.9911019 12.3915833,12.2918189 C12.3915833,12.5925358 12.5039722,12.8755925 12.7089167,13.0880075 C13.1310833,13.5270642 13.8186389,13.5270642 14.2412778,13.0880075 L16.2978056,10.9515925 C16.2978056,10.9515925 16.2982778,10.9511019 16.29875,10.9506113 C16.2992222,10.9501208 16.2996944,10.9501208 16.2996944,10.9496302 L17.1940833,10.0204981 C17.4046944,9.80170566 17.7461111,9.80170566 17.95625,10.0204981 C18.1668611,10.2388 18.1668611,10.5939698 17.95625,10.8122717 L17.442,11.3469887 L17.8958056,11.8184226 C17.8958056,11.8189132 17.8958056,11.8189132 17.8958056,11.8189132 L17.9128056,11.836083 C17.9128056,11.836083 17.9128056,11.836083 17.9128056,11.836083 L17.9321667,11.8561962 C17.935,11.8591396 17.9378333,11.862083 17.9411389,11.865517 C18.12625,12.0524226 19.7894167,13.6771774 21.1768056,13.0880075 C21.4521111,12.9707623 21.7670833,13.1081208 21.8794722,13.3941208 C21.9923333,13.6801208 21.8601111,14.0073283 21.5848056,14.124083 C21.233,14.2737057 20.8797778,14.3364981 20.5345833,14.3364981 C20.4595,14.3364981 20.3853611,14.3330642 20.3112222,14.3271774 L23.7206667,17.8690642 L24.1348056,17.4388377 C25.211,16.3203472 25.9221667,14.9070264 26.1908611,13.3514415 C26.2815278,12.8270264 26.5270833,12.3443094 26.9010833,11.9557811 L28.5094722,10.2849132 L24.0979722,5.70253585 L23.3476111,6.48155472 Z"/>
    <path fill="#143335" d="M29.9353472,10.1829245 L24.1525139,4.17545283 L26.6628472,1.56760377 L32.4456806,7.57507547 L29.9353472,10.1829245 Z M26.9013194,11.9558302 C26.5273194,12.3443585 26.2817639,12.8270755 26.1910972,13.3514906 C25.9219306,14.9070755 25.2107639,16.3203962 24.1350417,17.4388868 L23.7209028,17.8691132 L20.3109861,14.3272264 C20.385125,14.3331132 20.4597361,14.3365472 20.5343472,14.3365472 C20.8795417,14.3365472 21.2332361,14.2737547 21.5850417,14.1241321 C21.8603472,14.0073774 21.9920972,13.6801698 21.8797083,13.3941698 C21.7668472,13.1081698 21.4523472,12.9708113 21.1765694,13.0880566 C19.7896528,13.6772264 18.1264861,12.0524717 17.941375,11.8650755 C17.9380694,11.8621321 17.9352361,11.8591887 17.9319306,11.8557547 L17.9130417,11.8361321 C17.9130417,11.8361321 17.9125694,11.8361321 17.9125694,11.8361321 L17.8960417,11.8189623 C17.8955694,11.8184717 17.8955694,11.8184717 17.8955694,11.8184717 L17.4417639,11.3465472 L17.9564861,10.8123208 C18.1670972,10.5935283 18.1670972,10.2388491 17.9564861,10.0205472 C17.745875,9.80175472 17.4049306,9.80175472 17.1943194,10.0205472 L16.2999306,10.9496792 C16.2994583,10.9501698 16.2989861,10.9501698 16.2989861,10.9506604 C16.2985139,10.9506604 16.2980417,10.9511509 16.2975694,10.9516415 L14.2410417,13.0880566 C13.8184028,13.5271132 13.1313194,13.5271132 12.7086806,13.0880566 C12.5037361,12.8756415 12.3913472,12.5925849 12.3913472,12.2918679 C12.3913472,11.9911509 12.5037361,11.7085849 12.7086806,11.4961698 L16.258375,7.80858491 C16.4557639,7.6035283 16.6753472,7.423 16.9109861,7.27190566 C17.4715139,6.91183019 18.1189306,6.72149057 18.7833472,6.72149057 C19.2900417,6.72149057 19.8005139,6.83628302 20.2595139,7.05262264 C21.3040694,7.54466038 22.5445972,7.31507547 23.347375,6.48160377 L24.0982083,5.70258491 L28.5092361,10.2849623 L26.9013194,11.9558302 Z M23.5060417,20.3086981 C23.3676806,20.4529245 23.1835139,20.5319057 22.9875417,20.5319057 C22.7915694,20.5319057 22.6074028,20.4529245 22.4685694,20.3082075 L17.240125,14.8776415 C17.0290417,14.6588491 16.6880972,14.6588491 16.4774861,14.8776415 C16.2673472,15.096434 16.2673472,15.4511132 16.4779583,15.6694151 L22.1101528,21.5199057 C22.2489861,21.6636415 22.3250139,21.8549623 22.3250139,22.0590377 C22.3250139,22.2626226 22.2485139,22.454434 22.1101528,22.5981698 C21.8235139,22.8954528 21.3579028,22.8954528 21.0717361,22.5986604 L20.121625,21.6116415 C20.1164306,21.6057547 20.1112361,21.5998679 20.1055694,21.5939811 C20.1036806,21.5925094 20.1022639,21.5915283 20.100375,21.589566 L15.7327917,17.0523208 C15.5221806,16.8335283 15.1812361,16.8335283 14.970625,17.0523208 C14.7600139,17.2706226 14.7600139,17.6253019 14.970625,17.8440943 L19.352375,22.3960566 C19.4864861,22.5388113 19.5601528,22.7276792 19.5601528,22.9273396 C19.5601528,23.1314151 19.4836528,23.3222453 19.3452917,23.4664717 C19.059125,23.7637547 18.5935139,23.7637547 18.3073472,23.4664717 L13.5563194,18.5308868 C13.3457083,18.3120943 13.0047639,18.3120943 12.7941528,18.5308868 C12.5835417,18.7491887 12.5835417,19.1038679 12.7941528,19.3221698 L16.3159861,22.9813019 C16.3169306,22.982283 16.317875,22.9832642 16.3188194,22.9842453 C16.4571806,23.1279811 16.5336806,23.3193019 16.5336806,23.5223962 C16.5336806,23.7264717 16.4571806,23.9173019 16.317875,24.0620189 C16.1795139,24.2062453 15.9953472,24.2852264 15.799375,24.2852264 C15.7516806,24.2852264 15.7054028,24.2803208 15.6600694,24.2714906 C15.7474306,23.6612264 15.565625,23.0171132 15.1141806,22.5486226 C14.7482083,22.1679434 14.260875,21.9579811 13.7428472,21.9579811 C13.7282083,21.9579811 13.7140417,21.9589623 13.6994028,21.9594528 C13.7102639,21.4286604 13.5223194,20.894434 13.1332083,20.4906981 C12.7667639,20.1095283 12.2799028,19.9000566 11.7614028,19.9000566 C11.7288194,19.9000566 11.6967083,19.9010377 11.6645972,19.9025094 C11.6905694,19.3540566 11.5021528,18.796283 11.0998194,18.3778302 C10.6096528,17.8691132 9.92115278,17.6900566 9.29073611,17.8406604 L8.90445833,17.4388868 C7.84054167,16.3336415 7.13268056,14.9374906 6.857375,13.4020189 C6.75631944,12.8398302 6.49470833,12.325717 6.10040278,11.9165849 L5.15029167,10.9290755 L10.5558194,5.3140566 L11.9030694,6.71315094 C12.420625,7.25130189 13.1256528,7.53926415 13.8476806,7.53926415 C14.1711528,7.53926415 14.4979306,7.48137736 14.8129028,7.36216981 C14.9659028,7.30477358 15.123625,7.26307547 15.2837083,7.23707547 L11.9465139,10.7039057 C11.5385139,11.1282453 11.3137361,11.6919057 11.3137361,12.2918679 C11.3137361,12.8918302 11.5385139,13.4554906 11.9465139,13.8798302 C12.3682083,14.3174151 12.9211806,14.5362075 13.4750972,14.5362075 C14.0285417,14.5362075 14.5819861,14.3174151 15.0036806,13.8798302 L16.6800694,12.1383208 L17.1334028,12.6097547 L17.133875,12.6102453 L17.1527639,12.6298679 L17.1707083,12.6485094 C17.1707083,12.649 17.1711806,12.649 17.1711806,12.649 L17.1716528,12.6494906 C17.1768472,12.6548868 17.1820417,12.6597925 17.1872361,12.6651887 L23.5065139,19.2299434 C23.6453472,19.3741698 23.721375,19.5654906 23.721375,19.7690755 C23.721375,19.9726604 23.6453472,20.1644717 23.5060417,20.3086981 L23.5060417,20.3086981 Z M14.3520139,24.6065472 C14.1890972,24.7757925 13.9728194,24.869 13.742375,24.869 C13.5124028,24.869 13.296125,24.7757925 13.1332083,24.6065472 C12.7969861,24.2577547 12.7969861,23.6896792 13.1332083,23.3403962 C13.3013194,23.1662453 13.5218472,23.078434 13.742375,23.078434 C13.963375,23.078434 14.1839028,23.1662453 14.3520139,23.3403962 C14.6882361,23.6896792 14.6882361,24.2577547 14.3520139,24.6065472 L14.3520139,24.6065472 Z M11.7614028,22.8105849 C11.5314306,22.8105849 11.3146806,22.7178679 11.1517639,22.5486226 C10.8160139,22.1993396 10.8160139,21.6312642 11.1517639,21.2819811 C11.319875,21.1078302 11.540875,21.0205094 11.7614028,21.0205094 C11.9819306,21.0205094 12.2029306,21.1078302 12.3710417,21.2819811 C12.7067917,21.6312642 12.7067917,22.1993396 12.3710417,22.5486226 C12.208125,22.7178679 11.991375,22.8105849 11.7614028,22.8105849 L11.7614028,22.8105849 Z M9.11884722,20.4362453 C8.95593056,20.267 8.86620833,20.0423208 8.86620833,19.8029245 C8.86620833,19.5640189 8.95593056,19.3388491 9.11884722,19.1700943 C9.28695833,18.9954528 9.50748611,18.9081321 9.72801389,18.9081321 C9.94854167,18.9081321 10.1695417,18.9954528 10.3376528,19.1700943 C10.6734028,19.5193774 10.6734028,20.0869623 10.3376528,20.4362453 C10.0014306,20.7855283 9.45506944,20.7855283 9.11884722,20.4362453 L9.11884722,20.4362453 Z M1.30168056,8.12843396 L7.82448611,1.35175472 L10.3352917,3.95960377 L3.81154167,10.736283 L1.30168056,8.12843396 Z M33.5889306,7.17918868 L27.0439306,0.379943396 C26.8333194,0.161150943 26.492375,0.161150943 26.2817639,0.379943396 L23.0092639,3.77956604 C22.9082083,3.8840566 22.8515417,4.02681132 22.8515417,4.17545283 C22.8515417,4.32360377 22.9082083,4.46635849 23.0092639,4.57133962 L23.3360417,4.91081132 L22.5856806,5.68983019 C22.0988194,6.19511321 21.3427917,6.33345283 20.7052917,6.03273585 C20.1074583,5.75066038 19.4430417,5.60201887 18.7833472,5.60201887 C17.9999306,5.60201887 17.2344583,5.80609434 16.5544583,6.19315094 C16.2706528,6.12054717 15.9797639,6.08326415 15.6860417,6.08326415 C15.2605694,6.08326415 14.843125,6.15979245 14.4445694,6.31039623 C13.8089583,6.55028302 13.1265972,6.40115094 12.6652361,5.92186792 L11.3179861,4.52228302 L11.4785417,4.35549057 C11.579125,4.25050943 11.6362639,4.10824528 11.6362639,3.95960377 C11.6362639,3.81096226 11.579125,3.66869811 11.4785417,3.56371698 L8.20556944,0.16409434 C7.99543056,-0.0546981132 7.65401389,-0.0546981132 7.44340278,0.16409434 L0.157958333,7.73254717 C-0.0526527778,7.95133962 -0.0526527778,8.3055283 0.157958333,8.52432075 L3.43045833,11.9239434 C3.53151389,12.0289245 3.66893056,12.0877925 3.81154167,12.0877925 C3.954625,12.0877925 4.09156944,12.0289245 4.192625,11.9239434 L4.388125,11.7213396 L5.33823611,12.7078679 C5.578125,12.9570755 5.73679167,13.2680943 5.79770833,13.607566 C6.11315278,15.3657547 6.92395833,16.9645094 8.14229167,18.2311509 L8.32126389,18.4165849 C7.97748611,18.7928491 7.788125,19.282434 7.788125,19.8029245 C7.788125,20.3410755 7.99023611,20.8473396 8.35668056,21.2280189 C8.73493056,21.6209623 9.23123611,21.8171887 9.72801389,21.8171887 C9.760125,21.8171887 9.79270833,21.8162075 9.82529167,21.8147358 C9.79884722,22.3636792 9.98679167,22.9219434 10.3900694,23.3403962 C10.7565139,23.7210755 11.243375,23.9305472 11.7614028,23.9305472 C11.7760417,23.9305472 11.7902083,23.929566 11.8048472,23.929566 C11.7935139,24.4598679 11.9819306,24.9940943 12.3710417,25.3983208 C12.7374861,25.779 13.2243472,25.9884717 13.7428472,25.9884717 C14.260875,25.9884717 14.7482083,25.779 15.1141806,25.3983208 C15.1453472,25.366434 15.174625,25.3330755 15.2024861,25.299717 C15.3932639,25.3683962 15.595375,25.4051887 15.799375,25.4051887 C16.283875,25.4051887 16.7390972,25.2089623 17.0805139,24.8533019 C17.2623194,24.6649245 17.4002083,24.4426981 17.4899306,24.2008491 L17.5451806,24.2582453 C17.8984028,24.6251887 18.3625972,24.8086604 18.8263194,24.8086604 C19.2905139,24.8086604 19.7542361,24.6251887 20.1074583,24.2582453 C20.2949306,24.063 20.436125,23.8329245 20.525375,23.5817547 C20.8417639,23.8206604 21.2162361,23.9403585 21.5907083,23.9403585 C22.0544306,23.9403585 22.5190972,23.7568868 22.8723194,23.3899434 C23.2146806,23.0347736 23.4030972,22.5618679 23.4030972,22.0590377 C23.4030972,21.9064717 23.385625,21.7578302 23.3520972,21.6136038 C23.6972917,21.541 24.0141528,21.3648868 24.2686806,21.0999811 C24.6110417,20.7448113 24.7994583,20.2719057 24.7994583,19.7690755 C24.7994583,19.3731887 24.681875,18.9959434 24.465125,18.6795283 L24.8972083,18.2306604 C26.1297083,16.9493019 26.9442917,15.3309245 27.2521806,13.5491887 C27.3036528,13.250434 27.4457917,12.9737547 27.6634861,12.7471132 L29.271875,11.0767358 L29.5542639,11.3705849 C29.6595694,11.4794906 29.7974583,11.534434 29.9353472,11.534434 C30.0737083,11.534434 30.2115972,11.4794906 30.3169028,11.3705849 L33.5894028,7.97096226 C33.6899861,7.86598113 33.747125,7.72371698 33.747125,7.57458491 C33.747125,7.42643396 33.6899861,7.28416981 33.5889306,7.17918868 L33.5889306,7.17918868 Z"/>
    <path fill="#143335" d="M30.4783083,7.44326038 C30.7762806,7.44326038 31.0175861,7.69393962 31.0175861,8.00348679 C31.0175861,8.3125434 30.7762806,8.56322264 30.4783083,8.56322264 C30.1808083,8.56322264 29.9395028,8.3125434 29.9395028,8.00348679 C29.9395028,7.69393962 30.1808083,7.44326038 30.4783083,7.44326038"/>
  </g>
</svg>
