<?xml version="1.0" encoding="utf-8"?>
<!-- Generator: Adobe Illustrator 20.0.0, SVG Export Plug-In . SVG Version: 6.00 Build 0)  -->
<svg version="1.1" id="Layer_1" xmlns="http://www.w3.org/2000/svg" xmlns:xlink="http://www.w3.org/1999/xlink" x="0px" y="0px"
	 viewBox="0 0 16 16" style="enable-background:new 0 0 16 16;" xml:space="preserve">
<style type="text/css">
	.st0{opacity:0.4;fill:#231F20;}
	.st1{fill:#FFFFFF;}
	.st2{fill:#F7A8AB;}
	.st3{fill-rule:evenodd;clip-rule:evenodd;fill:#FFFFFF;}
	.st4{fill-rule:evenodd;clip-rule:evenodd;fill:#A23739;}
</style>
<g id="_x31_6_4_">
	<polygon class="st0" points="3,0 3,16 16,16 16,4.6 11.4,0 	"/>
	<polygon class="st1" points="4,15 4,1 11,1 15,5 15,15 	"/>
	<g>
		<g>
			<rect x="5" y="5" class="st0" width="6" height="6"/>
			<rect x="6" y="6" class="st1" width="4" height="5"/>
			<rect x="5" y="5" class="st2" width="6" height="2"/>
		</g>
		<g>
			<rect x="8" y="8" class="st0" width="6" height="6"/>
			<rect x="9" y="9" class="st1" width="4" height="4"/>
			<rect x="8" y="8" class="st2" width="6" height="2"/>
		</g>
	</g>
	<polygon class="st1" points="11,5 11,1 11,1 15,5 15,5 	"/>
	<polygon class="st0" points="11,5 11,1 10,1 10,5 10,6 11,6 15,6 15,5 	"/>
</g>
<g id="_x31_6_2_">
	<polygon class="st3" points="4,2.5 4,14.4 8,15 8,2 	"/>
	<path class="st4" d="M0,4l7-1v11l-7-1.1V4z"/>
	<g>
		<path class="st1" d="M5,11L4.6,9.9H2.8L2.4,11H1.5l1.7-4.6h0.8L5.8,11H5z M3.7,7.3L3.7,7.3L3,9.2h1.4L3.7,7.3z"/>
	</g>
	<g>
		<rect x="3" y="7" class="st1" width="1" height="1"/>
		<polygon class="st1" points="3,10 2,10 2,9 3,7 		"/>
		<polygon class="st1" points="5,10 4,10 4,7 5,9 		"/>
		<rect x="3" y="9" class="st1" width="1" height="1"/>
		<rect x="4" y="10" class="st1" width="1" height="1"/>
		<rect x="2" y="10" class="st1" width="1" height="1"/>
	</g>
</g>
<g>
</g>
<g>
</g>
<g>
</g>
<g>
</g>
<g>
</g>
<g>
</g>
<g>
</g>
<g>
</g>
<g>
</g>
<g>
</g>
<g>
</g>
<g>
</g>
<g>
</g>
<g>
</g>
<g>
</g>
</svg>
